CPU.vcd
$date
	Fri Nov 08 13:35:00 2024
$end
$version
	Icarus Verilog
$end
$timescale
	1ps
$end
$scope module CPU_tb $end
$var reg 1 ! clk $end
$var reg 1 " reset $end
$scope module cpu $end
$var wire 1 ! clk $end
$var wire 1 " reset $end
$var wire 1 # zero_flag $end
$var wire 3 $ write_reg [2:0] $end
$var wire 1 % reg_write $end
$var wire 3 & reg2 [2:0] $end
$var wire 3 ' reg1 [2:0] $end
$var wire 16 ( read_data2 [15:0] $end
$var wire 16 ) read_data1 [15:0] $end
$var wire 16 * pc_out [15:0] $end
$var wire 16 + pc_in [15:0] $end
$var wire 4 , opcode [3:0] $end
$var wire 1 - mem_write $end
$var wire 1 . mem_read $end
$var wire 16 / mem_data [15:0] $end
$var wire 1 0 jump $end
$var wire 16 1 instruction [15:0] $end
$var wire 16 2 immediate [15:0] $end
$var wire 16 3 alu_result [15:0] $end
$var wire 3 4 alu_op [2:0] $end
$scope module ALU $end
$var wire 1 # Zero $end
$var wire 16 5 B [15:0] $end
$var wire 3 6 ALUOp [2:0] $end
$var wire 16 7 A [15:0] $end
$var reg 16 8 Result [15:0] $end
$upscope $end
$scope module CU $end
$var wire 4 9 opcode [3:0] $end
$var reg 3 : aluOp [2:0] $end
$var reg 1 0 jump $end
$var reg 1 . memRead $end
$var reg 1 - memWrite $end
$var reg 1 % regWrite $end
$upscope $end
$scope module DM $end
$var wire 8 ; address [7:0] $end
$var wire 1 . memRead $end
$var wire 1 - memWrite $end
$var wire 16 < writeData [15:0] $end
$var reg 16 = readData [15:0] $end
$upscope $end
$scope module IM $end
$var wire 16 > address [15:0] $end
$var reg 16 ? instruction [15:0] $end
$upscope $end
$scope module PC $end
$var wire 1 ! clk $end
$var wire 16 @ pc_in [15:0] $end
$var wire 1 A pc_write_enable $end
$var wire 1 " reset $end
$var reg 16 B pc_out [15:0] $end
$upscope $end
$scope module RF $end
$var wire 1 ! clk $end
$var wire 16 C read_data1 [15:0] $end
$var wire 16 D read_data2 [15:0] $end
$var wire 3 E read_reg1 [2:0] $end
$var wire 3 F read_reg2 [2:0] $end
$var wire 1 % reg_write $end
$var wire 16 G write_data [15:0] $end
$var wire 3 H write_reg [2:0] $end
$upscope $end
$upscope $end
$upscope $end
$enddefinitions $end
$comment Show the parameter values. $end
$dumpall
$end
#0
$dumpvars
b0 H
bx G
b0 F
b0 E
bx D
bx C
b0 B
1A
b1 @
b1 ?
b0 >
bx =
bx <
bx ;
b10 :
b0 9
bx 8
bx 7
b10 6
bx 5
b10 4
bx 3
b1 2
b1 1
00
bx /
0.
0-
b0 ,
b1 +
b0 *
bx )
bx (
b0 '
b0 &
1%
b0 $
x#
1"
0!
$end
#5000
1!
#10000
0!
0"
#15000
b11 4
b11 6
b11 :
1%
b10 2
b1 ,
b1 9
b10 +
b10 @
b1000000000010 1
b1000000000010 ?
b1 *
b1 >
b1 B
1!
#20000
0!
#25000
1.
b0 4
b0 6
b0 :
1%
b100 2
b10 ,
b10 9
b11 +
b11 @
b10000000000100 1
b10000000000100 ?
b10 *
b10 >
b10 B
1!
#30000
0!
#35000
1-
0.
0%
b101 2
b11 ,
b11 9
b100 +
b100 @
b11000000000101 1
b11000000000101 ?
b11 *
b11 >
b11 B
1!
#40000
0!
#45000
10
0-
b0 2
b100 ,
b100 9
b0 +
b0 @
b100000000000000 1
b100000000000000 ?
b100 *
b100 >
b100 B
1!
#50000
0!
#55000
b1 +
b1 @
b10 4
b10 6
b10 :
1%
00
b1 2
b0 ,
b0 9
b1 1
b1 ?
b0 *
b0 >
b0 B
1!
#60000
0!
#65000
b11 4
b11 6
b11 :
1%
b10 2
b1 ,
b1 9
b10 +
b10 @
b1000000000010 1
b1000000000010 ?
b1 *
b1 >
b1 B
1!
#70000
0!
#75000
1.
b0 4
b0 6
b0 :
1%
b100 2
b10 ,
b10 9
b11 +
b11 @
b10000000000100 1
b10000000000100 ?
b10 *
b10 >
b10 B
1!
#80000
0!
#85000
1-
0.
0%
b101 2
b11 ,
b11 9
b100 +
b100 @
b11000000000101 1
b11000000000101 ?
b11 *
b11 >
b11 B
1!
#90000
0!
#95000
10
0-
b0 2
b100 ,
b100 9
b0 +
b0 @
b100000000000000 1
b100000000000000 ?
b100 *
b100 >
b100 B
1!
#100000
0!
#105000
b1 +
b1 @
b10 4
b10 6
b10 :
1%
00
b1 2
b0 ,
b0 9
b1 1
b1 ?
b0 *
b0 >
b0 B
1!
#110000
0!
#115000
b11 4
b11 6
b11 :
1%
b10 2
b1 ,
b1 9
b10 +
b10 @
b1000000000010 1
b1000000000010 ?
b1 *
b1 >
b1 B
1!
#120000
0!
#125000
1.
b0 4
b0 6
b0 :
1%
b100 2
b10 ,
b10 9
b11 +
b11 @
b10000000000100 1
b10000000000100 ?
b10 *
b10 >
b10 B
1!
#130000
0!
#135000
1-
0.
0%
b101 2
b11 ,
b11 9
b100 +
b100 @
b11000000000101 1
b11000000000101 ?
b11 *
b11 >
b11 B
1!
#140000
0!
#145000
10
0-
b0 2
b100 ,
b100 9
b0 +
b0 @
b100000000000000 1
b100000000000000 ?
b100 *
b100 >
b100 B
1!
#150000
0!
#155000
b1 +
b1 @
b10 4
b10 6
b10 :
1%
00
b1 2
b0 ,
b0 9
b1 1
b1 ?
b0 *
b0 >
b0 B
1!
#160000
0!
#165000
b11 4
b11 6
b11 :
1%
b10 2
b1 ,
b1 9
b10 +
b10 @
b1000000000010 1
b1000000000010 ?
b1 *
b1 >
b1 B
1!
#170000
0!
#175000
1.
b0 4
b0 6
b0 :
1%
b100 2
b10 ,
b10 9
b11 +
b11 @
b10000000000100 1
b10000000000100 ?
b10 *
b10 >
b10 B
1!
#180000
0!
#185000
1-
0.
0%
b101 2
b11 ,
b11 9
b100 +
b100 @
b11000000000101 1
b11000000000101 ?
b11 *
b11 >
b11 B
1!
#190000
0!
#195000
10
0-
b0 2
b100 ,
b100 9
b0 +
b0 @
b100000000000000 1
b100000000000000 ?
b100 *
b100 >
b100 B
1!
#200000
0!
#205000
b1 +
b1 @
b10 4
b10 6
b10 :
1%
00
b1 2
b0 ,
b0 9
b1 1
b1 ?
b0 *
b0 >
b0 B
1!
#210000
0!
#215000
b11 4
b11 6
b11 :
1%
b10 2
b1 ,
b1 9
b10 +
b10 @
b1000000000010 1
b1000000000010 ?
b1 *
b1 >
b1 B
1!
#220000
0!
#225000
1.
b0 4
b0 6
b0 :
1%
b100 2
b10 ,
b10 9
b11 +
b11 @
b10000000000100 1
b10000000000100 ?
b10 *
b10 >
b10 B
1!
#230000
0!
#235000
1-
0.
0%
b101 2
b11 ,
b11 9
b100 +
b100 @
b11000000000101 1
b11000000000101 ?
b11 *
b11 >
b11 B
1!
#240000
0!
#245000
10
0-
b0 2
b100 ,
b100 9
b0 +
b0 @
b100000000000000 1
b100000000000000 ?
b100 *
b100 >
b100 B
1!
#250000
0!
#255000
b1 +
b1 @
b10 4
b10 6
b10 :
1%
00
b1 2
b0 ,
b0 9
b1 1
b1 ?
b0 *
b0 >
b0 B
1!
#260000
0!
#265000
b11 4
b11 6
b11 :
1%
b10 2
b1 ,
b1 9
b10 +
b10 @
b1000000000010 1
b1000000000010 ?
b1 *
b1 >
b1 B
1!
#270000
0!
#275000
1.
b0 4
b0 6
b0 :
1%
b100 2
b10 ,
b10 9
b11 +
b11 @
b10000000000100 1
b10000000000100 ?
b10 *
b10 >
b10 B
1!
#280000
0!
#285000
1-
0.
0%
b101 2
b11 ,
b11 9
b100 +
b100 @
b11000000000101 1
b11000000000101 ?
b11 *
b11 >
b11 B
1!
#290000
0!
#295000
10
0-
b0 2
b100 ,
b100 9
b0 +
b0 @
b100000000000000 1
b100000000000000 ?
b100 *
b100 >
b100 B
1!
#300000
0!
#305000
b1 +
b1 @
b10 4
b10 6
b10 :
1%
00
b1 2
b0 ,
b0 9
b1 1
b1 ?
b0 *
b0 >
b0 B
1!
#310000
0!
#315000
b11 4
b11 6
b11 :
1%
b10 2
b1 ,
b1 9
b10 +
b10 @
b1000000000010 1
b1000000000010 ?
b1 *
b1 >
b1 B
1!
#320000
0!
#325000
1.
b0 4
b0 6
b0 :
1%
b100 2
b10 ,
b10 9
b11 +
b11 @
b10000000000100 1
b10000000000100 ?
b10 *
b10 >
b10 B
1!
#330000
0!
#335000
1-
0.
0%
b101 2
b11 ,
b11 9
b100 +
b100 @
b11000000000101 1
b11000000000101 ?
b11 *
b11 >
b11 B
1!
#340000
0!
#345000
10
0-
b0 2
b100 ,
b100 9
b0 +
b0 @
b100000000000000 1
b100000000000000 ?
b100 *
b100 >
b100 B
1!
#350000
0!
#355000
b1 +
b1 @
b10 4
b10 6
b10 :
1%
00
b1 2
b0 ,
b0 9
b1 1
b1 ?
b0 *
b0 >
b0 B
1!
#360000
0!
#365000
b11 4
b11 6
b11 :
1%
b10 2
b1 ,
b1 9
b10 +
b10 @
b1000000000010 1
b1000000000010 ?
b1 *
b1 >
b1 B
1!
#370000
0!
#375000
1.
b0 4
b0 6
b0 :
1%
b100 2
b10 ,
b10 9
b11 +
b11 @
b10000000000100 1
b10000000000100 ?
b10 *
b10 >
b10 B
1!
#380000
0!
#385000
1-
0.
0%
b101 2
b11 ,
b11 9
b100 +
b100 @
b11000000000101 1
b11000000000101 ?
b11 *
b11 >
b11 B
1!
#390000
0!
#395000
10
0-
b0 2
b100 ,
b100 9
b0 +
b0 @
b100000000000000 1
b100000000000000 ?
b100 *
b100 >
b100 B
1!
#400000
0!
#405000
b1 +
b1 @
b10 4
b10 6
b10 :
1%
00
b1 2
b0 ,
b0 9
b1 1
b1 ?
b0 *
b0 >
b0 B
1!
#410000
0!
#415000
b11 4
b11 6
b11 :
1%
b10 2
b1 ,
b1 9
b10 +
b10 @
b1000000000010 1
b1000000000010 ?
b1 *
b1 >
b1 B
1!
#420000
0!
#425000
1.
b0 4
b0 6
b0 :
1%
b100 2
b10 ,
b10 9
b11 +
b11 @
b10000000000100 1
b10000000000100 ?
b10 *
b10 >
b10 B
1!
#430000
0!
#435000
1-
0.
0%
b101 2
b11 ,
b11 9
b100 +
b100 @
b11000000000101 1
b11000000000101 ?
b11 *
b11 >
b11 B
1!
#440000
0!
#445000
10
0-
b0 2
b100 ,
b100 9
b0 +
b0 @
b100000000000000 1
b100000000000000 ?
b100 *
b100 >
b100 B
1!
#450000
0!
#455000
b1 +
b1 @
b10 4
b10 6
b10 :
1%
00
b1 2
b0 ,
b0 9
b1 1
b1 ?
b0 *
b0 >
b0 B
1!
#460000
0!
#465000
b11 4
b11 6
b11 :
1%
b10 2
b1 ,
b1 9
b10 +
b10 @
b1000000000010 1
b1000000000010 ?
b1 *
b1 >
b1 B
1!
#470000
0!
#475000
1.
b0 4
b0 6
b0 :
1%
b100 2
b10 ,
b10 9
b11 +
b11 @
b10000000000100 1
b10000000000100 ?
b10 *
b10 >
b10 B
1!
#480000
0!
#485000
1-
0.
0%
b101 2
b11 ,
b11 9
b100 +
b100 @
b11000000000101 1
b11000000000101 ?
b11 *
b11 >
b11 B
1!
#490000
0!
#495000
10
0-
b0 2
b100 ,
b100 9
b0 +
b0 @
b100000000000000 1
b100000000000000 ?
b100 *
b100 >
b100 B
1!
#500000
0!
#505000
b1 +
b1 @
b10 4
b10 6
b10 :
1%
00
b1 2
b0 ,
b0 9
b1 1
b1 ?
b0 *
b0 >
b0 B
1!
#510000
0!
#515000
b11 4
b11 6
b11 :
1%
b10 2
b1 ,
b1 9
b10 +
b10 @
b1000000000010 1
b1000000000010 ?
b1 *
b1 >
b1 B
1!
#520000
0!
#525000
1.
b0 4
b0 6
b0 :
1%
b100 2
b10 ,
b10 9
b11 +
b11 @
b10000000000100 1
b10000000000100 ?
b10 *
b10 >
b10 B
1!
#530000
0!
#535000
1-
0.
0%
b101 2
b11 ,
b11 9
b100 +
b100 @
b11000000000101 1
b11000000000101 ?
b11 *
b11 >
b11 B
1!
#540000
0!
#545000
10
0-
b0 2
b100 ,
b100 9
b0 +
b0 @
b100000000000000 1
b100000000000000 ?
b100 *
b100 >
b100 B
1!
#550000
0!
#555000
b1 +
b1 @
b10 4
b10 6
b10 :
1%
00
b1 2
b0 ,
b0 9
b1 1
b1 ?
b0 *
b0 >
b0 B
1!
#560000
0!
#565000
b11 4
b11 6
b11 :
1%
b10 2
b1 ,
b1 9
b10 +
b10 @
b1000000000010 1
b1000000000010 ?
b1 *
b1 >
b1 B
1!
#570000
0!
#575000
1.
b0 4
b0 6
b0 :
1%
b100 2
b10 ,
b10 9
b11 +
b11 @
b10000000000100 1
b10000000000100 ?
b10 *
b10 >
b10 B
1!
#580000
0!
#585000
1-
0.
0%
b101 2
b11 ,
b11 9
b100 +
b100 @
b11000000000101 1
b11000000000101 ?
b11 *
b11 >
b11 B
1!
#590000
0!
#595000
10
0-
b0 2
b100 ,
b100 9
b0 +
b0 @
b100000000000000 1
b100000000000000 ?
b100 *
b100 >
b100 B
1!
#600000
0!
#605000
b1 +
b1 @
b10 4
b10 6
b10 :
1%
00
b1 2
b0 ,
b0 9
b1 1
b1 ?
b0 *
b0 >
b0 B
1!
#610000
0!
#615000
b11 4
b11 6
b11 :
1%
b10 2
b1 ,
b1 9
b10 +
b10 @
b1000000000010 1
b1000000000010 ?
b1 *
b1 >
b1 B
1!
#620000
0!
#625000
1.
b0 4
b0 6
b0 :
1%
b100 2
b10 ,
b10 9
b11 +
b11 @
b10000000000100 1
b10000000000100 ?
b10 *
b10 >
b10 B
1!
#630000
0!
#635000
1-
0.
0%
b101 2
b11 ,
b11 9
b100 +
b100 @
b11000000000101 1
b11000000000101 ?
b11 *
b11 >
b11 B
1!
#640000
0!
#645000
10
0-
b0 2
b100 ,
b100 9
b0 +
b0 @
b100000000000000 1
b100000000000000 ?
b100 *
b100 >
b100 B
1!
#650000
0!
#655000
b1 +
b1 @
b10 4
b10 6
b10 :
1%
00
b1 2
b0 ,
b0 9
b1 1
b1 ?
b0 *
b0 >
b0 B
1!
#660000
0!
#665000
b11 4
b11 6
b11 :
1%
b10 2
b1 ,
b1 9
b10 +
b10 @
b1000000000010 1
b1000000000010 ?
b1 *
b1 >
b1 B
1!
#670000
0!
#675000
1.
b0 4
b0 6
b0 :
1%
b100 2
b10 ,
b10 9
b11 +
b11 @
b10000000000100 1
b10000000000100 ?
b10 *
b10 >
b10 B
1!
#680000
0!
#685000
1-
0.
0%
b101 2
b11 ,
b11 9
b100 +
b100 @
b11000000000101 1
b11000000000101 ?
b11 *
b11 >
b11 B
1!
#690000
0!
#695000
10
0-
b0 2
b100 ,
b100 9
b0 +
b0 @
b100000000000000 1
b100000000000000 ?
b100 *
b100 >
b100 B
1!
#700000
0!
#705000
b1 +
b1 @
b10 4
b10 6
b10 :
1%
00
b1 2
b0 ,
b0 9
b1 1
b1 ?
b0 *
b0 >
b0 B
1!
#710000
0!
#715000
b11 4
b11 6
b11 :
1%
b10 2
b1 ,
b1 9
b10 +
b10 @
b1000000000010 1
b1000000000010 ?
b1 *
b1 >
b1 B
1!
#720000
0!
#725000
1.
b0 4
b0 6
b0 :
1%
b100 2
b10 ,
b10 9
b11 +
b11 @
b10000000000100 1
b10000000000100 ?
b10 *
b10 >
b10 B
1!
#730000
0!
#735000
1-
0.
0%
b101 2
b11 ,
b11 9
b100 +
b100 @
b11000000000101 1
b11000000000101 ?
b11 *
b11 >
b11 B
1!
#740000
0!
#745000
10
0-
b0 2
b100 ,
b100 9
b0 +
b0 @
b100000000000000 1
b100000000000000 ?
b100 *
b100 >
b100 B
1!
#750000
0!
#755000
b1 +
b1 @
b10 4
b10 6
b10 :
1%
00
b1 2
b0 ,
b0 9
b1 1
b1 ?
b0 *
b0 >
b0 B
1!
#760000
0!
#765000
b11 4
b11 6
b11 :
1%
b10 2
b1 ,
b1 9
b10 +
b10 @
b1000000000010 1
b1000000000010 ?
b1 *
b1 >
b1 B
1!
#770000
0!
#775000
1.
b0 4
b0 6
b0 :
1%
b100 2
b10 ,
b10 9
b11 +
b11 @
b10000000000100 1
b10000000000100 ?
b10 *
b10 >
b10 B
1!
#780000
0!
#785000
1-
0.
0%
b101 2
b11 ,
b11 9
b100 +
b100 @
b11000000000101 1
b11000000000101 ?
b11 *
b11 >
b11 B
1!
#790000
0!
#795000
10
0-
b0 2
b100 ,
b100 9
b0 +
b0 @
b100000000000000 1
b100000000000000 ?
b100 *
b100 >
b100 B
1!
#800000
0!
#805000
b1 +
b1 @
b10 4
b10 6
b10 :
1%
00
b1 2
b0 ,
b0 9
b1 1
b1 ?
b0 *
b0 >
b0 B
1!
#810000
0!
#815000
b11 4
b11 6
b11 :
1%
b10 2
b1 ,
b1 9
b10 +
b10 @
b1000000000010 1
b1000000000010 ?
b1 *
b1 >
b1 B
1!
#820000
0!
#825000
1.
b0 4
b0 6
b0 :
1%
b100 2
b10 ,
b10 9
b11 +
b11 @
b10000000000100 1
b10000000000100 ?
b10 *
b10 >
b10 B
1!
#830000
0!
#835000
1-
0.
0%
b101 2
b11 ,
b11 9
b100 +
b100 @
b11000000000101 1
b11000000000101 ?
b11 *
b11 >
b11 B
1!
#840000
0!
#845000
10
0-
b0 2
b100 ,
b100 9
b0 +
b0 @
b100000000000000 1
b100000000000000 ?
b100 *
b100 >
b100 B
1!
#850000
0!
#855000
b1 +
b1 @
b10 4
b10 6
b10 :
1%
00
b1 2
b0 ,
b0 9
b1 1
b1 ?
b0 *
b0 >
b0 B
1!
#860000
0!
#865000
b11 4
b11 6
b11 :
1%
b10 2
b1 ,
b1 9
b10 +
b10 @
b1000000000010 1
b1000000000010 ?
b1 *
b1 >
b1 B
1!
#870000
0!
#875000
1.
b0 4
b0 6
b0 :
1%
b100 2
b10 ,
b10 9
b11 +
b11 @
b10000000000100 1
b10000000000100 ?
b10 *
b10 >
b10 B
1!
#880000
0!
#885000
1-
0.
0%
b101 2
b11 ,
b11 9
b100 +
b100 @
b11000000000101 1
b11000000000101 ?
b11 *
b11 >
b11 B
1!
#890000
0!
#895000
10
0-
b0 2
b100 ,
b100 9
b0 +
b0 @
b100000000000000 1
b100000000000000 ?
b100 *
b100 >
b100 B
1!
#900000
0!
#905000
b1 +
b1 @
b10 4
b10 6
b10 :
1%
00
b1 2
b0 ,
b0 9
b1 1
b1 ?
b0 *
b0 >
b0 B
1!
#910000
0!
#915000
b11 4
b11 6
b11 :
1%
b10 2
b1 ,
b1 9
b10 +
b10 @
b1000000000010 1
b1000000000010 ?
b1 *
b1 >
b1 B
1!
#920000
0!
#925000
1.
b0 4
b0 6
b0 :
1%
b100 2
b10 ,
b10 9
b11 +
b11 @
b10000000000100 1
b10000000000100 ?
b10 *
b10 >
b10 B
1!
#930000
0!
#935000
1-
0.
0%
b101 2
b11 ,
b11 9
b100 +
b100 @
b11000000000101 1
b11000000000101 ?
b11 *
b11 >
b11 B
1!
#940000
0!
#945000
10
0-
b0 2
b100 ,
b100 9
b0 +
b0 @
b100000000000000 1
b100000000000000 ?
b100 *
b100 >
b100 B
1!
#950000
0!
#955000
b1 +
b1 @
b10 4
b10 6
b10 :
1%
00
b1 2
b0 ,
b0 9
b1 1
b1 ?
b0 *
b0 >
b0 B
1!
#960000
0!
#965000
b11 4
b11 6
b11 :
1%
b10 2
b1 ,
b1 9
b10 +
b10 @
b1000000000010 1
b1000000000010 ?
b1 *
b1 >
b1 B
1!
#970000
0!
#975000
1.
b0 4
b0 6
b0 :
1%
b100 2
b10 ,
b10 9
b11 +
b11 @
b10000000000100 1
b10000000000100 ?
b10 *
b10 >
b10 B
1!
#980000
0!
#985000
1-
0.
0%
b101 2
b11 ,
b11 9
b100 +
b100 @
b11000000000101 1
b11000000000101 ?
b11 *
b11 >
b11 B
1!
#990000
0!
#995000
10
0-
b0 2
b100 ,
b100 9
b0 +
b0 @
b100000000000000 1
b100000000000000 ?
b100 *
b100 >
b100 B
1!
#1000000
0!
#1005000
b1 +
b1 @
b10 4
b10 6
b10 :
1%
00
b1 2
b0 ,
b0 9
b1 1
b1 ?
b0 *
b0 >
b0 B
1!
